<?xml version="1.0" encoding="utf-8"?>
<!-- Generator: Adobe Illustrator 21.1.0, SVG Export Plug-In . SVG Version: 6.00 Build 0)  -->
<!DOCTYPE svg PUBLIC "-//W3C//DTD SVG 1.1//EN" "http://www.w3.org/Graphics/SVG/1.1/DTD/svg11.dtd">
<svg version="1.1" id="Calque_1" xmlns="http://www.w3.org/2000/svg" xmlns:xlink="http://www.w3.org/1999/xlink" x="0px" y="0px"
	 viewBox="0 0 1000 1000" style="enable-background:new 0 0 1000 1000;" xml:space="preserve">
<style type="text/css">
	.st0{fill:#007bff;}
</style>
<g id="Calque_2">
	<polygon class="st0" points="389.6,365.4 416.4,346 421.3,350.5 436.7,350.5 436.7,358.7 440.4,358.7 440.4,370.3 444.1,370.3 
		444.1,383.5 457.3,383.5 457.3,379.8 467.2,379.8 467.2,396.4 428.5,396.4 428.5,392.7 414.4,392.2 391.6,373.3 	"/>
</g>
<g id="Calque_3">
	<polygon class="st0" points="455.8,371.1 455.8,364.9 452.1,364.9 452.1,353.5 447.1,353.5 447.1,346 442.9,339.8 417.6,339.8 
		417.6,317.5 454.1,317.5 496.7,288 502.9,288 514.1,310.8 514.1,333.9 509.9,336.1 514.1,388.4 482.1,374.5 474.7,371.1 	"/>
</g>
<g id="Calque_4">
	<polygon class="st0" points="478.4,385.2 521,408.8 521,435.6 516.1,435.6 514.1,469.1 483.8,433.1 451.6,445.2 417.6,443 
		413.6,435.3 417.6,408.3 446.6,407.5 449.6,411.3 454.8,411.8 461.5,411.8 467.2,411.8 472.7,411.8 	"/>
</g>
<g id="Calque_5">
	<polygon class="st0" points="404,398.4 369.7,371.1 369.7,366.6 404,338.3 400.7,320 377.2,330.1 343.7,362.1 346.2,376.5 
		354.8,398.4 396.5,431.8 404,416.7 	"/>
</g>
<g id="Calque_6">
	<polygon class="st0" points="161.9,157 170,157 175.7,179.8 275.5,187.3 309.7,162 351.9,184.3 483.8,217.8 500.7,236.9 
		497.5,266.6 456.1,295.9 404,298.9 373.9,312.8 327.1,264.2 269.3,265.6 211,238.4 189.1,243.8 167.6,243.3 132.8,230.2 	"/>
</g>
<g id="Calque_7">
	<polygon class="st0" points="72.6,256.2 126.6,243.3 168.8,263.2 210.5,256.2 272.5,284 325.6,284 362.8,324.4 324.6,359.9 
		332.5,391.4 355.3,420.4 285.9,488.9 297.8,512.2 275.5,542.7 243.2,550.2 253.6,569.3 242.7,616.4 196.6,583.7 200.6,554.4 
		126.6,472.5 141,445.2 117.2,422.4 	"/>
</g>
<g id="Calque_8">
	<polygon class="st0" points="264.3,561.3 273.5,577.5 257.6,627.8 261.1,646.2 273.5,658.6 277.9,712.7 298.3,722.1 373.9,690.3 
		389.6,700.2 448.6,698.3 490,647.7 483.8,573.2 507.4,488.9 479.4,452.7 452.1,464.1 417.6,462.6 367.2,431.8 307.2,496.8 
		317.6,508.7 313.9,514.7 310.7,521.2 304.7,531.6 294.1,543.5 290.3,551.9 285.4,562.6 	"/>
</g>
<g id="Calque_9">
	<polygon class="st0" points="514.1,250 564.5,230.9 707.1,243.3 728.2,224 741.8,227 752.2,271.1 892.6,375.8 853.9,429.9 
		882.7,456.7 881.2,488.9 910,525.4 856.4,641.2 707.6,677.4 700.1,697.8 700.9,744.9 618.3,809.9 483.8,816.3 507.4,769.2 
		462,739.9 462,715.1 462,705.2 507.4,653.6 512.4,645.7 501.2,573.7 521,496.8 540.4,427.1 525.5,364.1 533,312.8 514.1,279.8 	"/>
</g>
</svg>
